^C:\USERS\ASUS\DESKTOP\FACULTATE II\SEMESTRUL I\MODERN C++\LABORATAORE\LAB1-MC\LAB1-MC\SOURCE.CPP
/c /ZI /JMC /nologo /W3 /WX- /diagnostics:column /sdl /Od /Oy- /D WIN32 /D _DEBUG /D _CONSOLE /D _UNICODE /D UNICODE /Gm- /EHsc /RTC1 /MDd /GS /fp:precise /permissive- /Zc:wchar_t /Zc:forScope /Zc:inline /Fo"DEBUG\\" /Fd"DEBUG\VC142.PDB" /external:W3 /Gd /TP /analyze- /FC C:\USERS\ASUS\DESKTOP\FACULTATE II\SEMESTRUL I\MODERN C++\LABORATAORE\LAB1-MC\LAB1-MC\SOURCE.CPP
^C:\USERS\ASUS\DESKTOP\FACULTATE II\SEMESTRUL I\MODERN C++\LABORATAORE\LAB1-MC\LAB1-MC\MAIN.CPP
/c /ZI /JMC /nologo /W3 /WX- /diagnostics:column /sdl /Od /Oy- /D WIN32 /D _DEBUG /D _CONSOLE /D _UNICODE /D UNICODE /Gm- /EHsc /RTC1 /MDd /GS /fp:precise /permissive- /Zc:wchar_t /Zc:forScope /Zc:inline /Fo"DEBUG\\" /Fd"DEBUG\VC142.PDB" /external:W3 /Gd /TP /analyze- /FC C:\USERS\ASUS\DESKTOP\FACULTATE II\SEMESTRUL I\MODERN C++\LABORATAORE\LAB1-MC\LAB1-MC\MAIN.CPP
^C:\USERS\ASUS\DESKTOP\FACULTATE II\SEMESTRUL I\MODERN C++\LABORATAORE\LAB1-MC\LAB1-MC\PRODUS.CPP
/c /ZI /JMC /nologo /W3 /WX- /diagnostics:column /sdl /Od /Oy- /D WIN32 /D _DEBUG /D _CONSOLE /D _UNICODE /D UNICODE /Gm- /EHsc /RTC1 /MDd /GS /fp:precise /permissive- /Zc:wchar_t /Zc:forScope /Zc:inline /Fo"DEBUG\\" /Fd"DEBUG\VC142.PDB" /external:W3 /Gd /TP /analyze- /FC C:\USERS\ASUS\DESKTOP\FACULTATE II\SEMESTRUL I\MODERN C++\LABORATAORE\LAB1-MC\LAB1-MC\PRODUS.CPP
^C:\USERS\ASUS\DESKTOP\FACULTATE II\SEMESTRUL I\MODERN C++\LABORATOARE\LAB1-MC\LAB1-MC\CATEGORIE.CPP
/c /ZI /JMC /nologo /W3 /WX- /diagnostics:column /sdl /Od /Oy- /D WIN32 /D _DEBUG /D _CONSOLE /D _UNICODE /D UNICODE /Gm- /EHsc /RTC1 /MDd /GS /fp:precise /permissive- /Zc:wchar_t /Zc:forScope /Zc:inline /Fo"DEBUG\\" /Fd"DEBUG\VC142.PDB" /external:W3 /Gd /TP /analyze- /FC C:\USERS\ASUS\DESKTOP\FACULTATE II\SEMESTRUL I\MODERN C++\LABORATOARE\LAB1-MC\LAB1-MC\CATEGORIE.CPP
^C:\USERS\ASUS\DESKTOP\FACULTATE II\SEMESTRUL I\MODERN C++\LABORATOARE\LAB1-MC\LAB1-MC\PRODUS.CPP
/c /ZI /JMC /nologo /W3 /WX- /diagnostics:column /sdl /Od /Oy- /D WIN32 /D _DEBUG /D _CONSOLE /D _UNICODE /D UNICODE /Gm- /EHsc /RTC1 /MDd /GS /fp:precise /permissive- /Zc:wchar_t /Zc:forScope /Zc:inline /Fo"DEBUG\\" /Fd"DEBUG\VC142.PDB" /external:W3 /Gd /TP /analyze- /FC C:\USERS\ASUS\DESKTOP\FACULTATE II\SEMESTRUL I\MODERN C++\LABORATOARE\LAB1-MC\LAB1-MC\PRODUS.CPP
^C:\USERS\ASUS\DESKTOP\FACULTATE II\SEMESTRUL I\MODERN C++\LABORATOARE\LAB1-MC\LAB1-MC\MAIN.CPP
/c /ZI /JMC /nologo /W3 /WX- /diagnostics:column /sdl /Od /Oy- /D WIN32 /D _DEBUG /D _CONSOLE /D _UNICODE /D UNICODE /Gm- /EHsc /RTC1 /MDd /GS /fp:precise /permissive- /Zc:wchar_t /Zc:forScope /Zc:inline /Fo"DEBUG\\" /Fd"DEBUG\VC142.PDB" /external:W3 /Gd /TP /analyze- /FC C:\USERS\ASUS\DESKTOP\FACULTATE II\SEMESTRUL I\MODERN C++\LABORATOARE\LAB1-MC\LAB1-MC\MAIN.CPP
^C:\USERS\ASUS\DESKTOP\FACULTATE II\SEMESTRUL I\MODERN C++\LABORATOARE\MODERN-C-PRODUCTS\LAB1-MC\LAB1-MC\CATEGORIE.CPP
/c /ZI /JMC /nologo /W3 /WX- /diagnostics:column /sdl /Od /Oy- /D WIN32 /D _DEBUG /D _CONSOLE /D _UNICODE /D UNICODE /Gm- /EHsc /RTC1 /MDd /GS /fp:precise /permissive- /Zc:wchar_t /Zc:forScope /Zc:inline /Fo"DEBUG\\" /Fd"DEBUG\VC142.PDB" /external:W3 /Gd /TP /analyze- /FC C:\USERS\ASUS\DESKTOP\FACULTATE II\SEMESTRUL I\MODERN C++\LABORATOARE\MODERN-C-PRODUCTS\LAB1-MC\LAB1-MC\CATEGORIE.CPP
^C:\USERS\ASUS\DESKTOP\FACULTATE II\SEMESTRUL I\MODERN C++\LABORATOARE\MODERN-C-PRODUCTS\LAB1-MC\LAB1-MC\MAIN.CPP
/c /ZI /JMC /nologo /W3 /WX- /diagnostics:column /sdl /Od /Oy- /D WIN32 /D _DEBUG /D _CONSOLE /D _UNICODE /D UNICODE /Gm- /EHsc /RTC1 /MDd /GS /fp:precise /permissive- /Zc:wchar_t /Zc:forScope /Zc:inline /Fo"DEBUG\\" /Fd"DEBUG\VC142.PDB" /external:W3 /Gd /TP /analyze- /FC C:\USERS\ASUS\DESKTOP\FACULTATE II\SEMESTRUL I\MODERN C++\LABORATOARE\MODERN-C-PRODUCTS\LAB1-MC\LAB1-MC\MAIN.CPP
^C:\USERS\ASUS\DESKTOP\FACULTATE II\SEMESTRUL I\MODERN C++\LABORATOARE\MODERN-C-PRODUCTS\LAB1-MC\LAB1-MC\PRODUS.CPP
/c /ZI /JMC /nologo /W3 /WX- /diagnostics:column /sdl /Od /Oy- /D WIN32 /D _DEBUG /D _CONSOLE /D _UNICODE /D UNICODE /Gm- /EHsc /RTC1 /MDd /GS /fp:precise /permissive- /Zc:wchar_t /Zc:forScope /Zc:inline /Fo"DEBUG\\" /Fd"DEBUG\VC142.PDB" /external:W3 /Gd /TP /analyze- /FC C:\USERS\ASUS\DESKTOP\FACULTATE II\SEMESTRUL I\MODERN C++\LABORATOARE\MODERN-C-PRODUCTS\LAB1-MC\LAB1-MC\PRODUS.CPP
